…
dprime_summary <- dprime_data %>%
  select(ResponseId, Pattern, Duration, Hits, Misses, FalseAlarms, CorrectRejs, 
         dprime, beta, criterion, aprime) %>%
  arrange(ResponseId, Pattern, Duration)

# Display dprime results
print(dprime_summary)
```

    ## # A tibble: 360 × 11
    ##    ResponseId Pattern Duration  Hits Misses FalseAlarms CorrectRejs dprime  beta
    ##    <chr>      <chr>      <dbl> <int>  <int>       <int>       <int>  <dbl> <dbl>
    ##  1 R_1a2kT4s… Jhaptal      5       2      0           0           4  2.25  1.42 
    ##  2 R_1a2kT4s… Keherva      4       2      0           0           4  2.25  1.42 
    ##  3 R_1a2kT4s… Rupak        3.5     1      1           2           2  0     1    
    ##  4 R_1a2kT4s… Teental      8       2      0           0           4  2.25  1.42 
    ##  5 R_1fAJ28Q… Jhaptal      4       1      1           2           2  0     1    
    ##  6 R_1fAJ28Q… Keherva      3.5     2      0           0           4  2.25  1.42 
    ##  7 R_1fAJ28Q… Rupak        8       2      0           3           1  0.443 0.719
    ##  8 R_1fAJ28Q… Teental      5       2      0           0           4  2.25  1.42 
    ##  9 R_1v5DHxR… Jhaptal      4       2      0           0           4  2.25  1.42 
    ## 10 R_1v5DHxR… Keherva      3.5     2      0           0           4  2.25  1.42 
    ## # ℹ 350 more rows
    ## # ℹ 2 more variables: criterion <dbl>, aprime <dbl>
…
``` r
# Count total responses per participant
data1_long %>% 
  group_by(ResponseId) %>%
  summarise(total_responses = n()) %>%
  arrange(total_responses)
```

    ## # A tibble: 90 × 2
    ##    ResponseId        total_responses
    ##    <chr>                       <int>
    ##  1 R_1a2kT4sTZ1umjXH              24
    ##  2 R_1fAJ28QQRygC20l              24
    ##  3 R_1v5DHxRRtU5AbzO              24
    ##  4 R_21nqGlJXGY4v8Jb              24
    ##  5 R_22Q25krmP2LlT9U              24
    ##  6 R_25cSS3BRq8iLBKN              24
    ##  7 R_26ECudQ82Quje4p              24
    ##  8 R_27G0cnE8h7RcWGJ              24
    ##  9 R_29ORVsytj5uGQHD              24
    ## 10 R_2C8Nvjb39HY9yxP              24
    ## # ℹ 80 more rows

``` r
# Count responses per participant by pattern and duration
data1_long %>%
  group_by(ResponseId, Pattern, Duration) %>%
  summarise(responses = n(), .groups = "drop") %>%
  arrange(ResponseId, Pattern, Duration)
```

    ## # A tibble: 360 × 4
    ##    ResponseId        Pattern Duration responses
    ##    <chr>             <chr>      <dbl>     <int>
    ##  1 R_1a2kT4sTZ1umjXH Jhaptal      5           6
    ##  2 R_1a2kT4sTZ1umjXH Keherva      4           6
    ##  3 R_1a2kT4sTZ1umjXH Rupak        3.5         6
    ##  4 R_1a2kT4sTZ1umjXH Teental      8           6
    ##  5 R_1fAJ28QQRygC20l Jhaptal      4           6
    ##  6 R_1fAJ28QQRygC20l Keherva      3.5         6
    ##  7 R_1fAJ28QQRygC20l Rupak        8           6
    ##  8 R_1fAJ28QQRygC20l Teental      5           6
    ##  9 R_1v5DHxRRtU5AbzO Jhaptal      4           6
    ## 10 R_1v5DHxRRtU5AbzO Keherva      3.5         6
    ## # ℹ 350 more rows
…
#print(duplicated_rows)

participant_counts <- data1_long %>%
  group_by(ResponseId) %>%
  summarise(total_entries = n()) %>%
  arrange(desc(total_entries))

# View the results
print(participant_counts)
```

    ## # A tibble: 90 × 2
    ##    ResponseId        total_entries
    ##    <chr>                     <int>
    ##  1 R_1a2kT4sTZ1umjXH            24
    ##  2 R_1fAJ28QQRygC20l            24
    ##  3 R_1v5DHxRRtU5AbzO            24
    ##  4 R_21nqGlJXGY4v8Jb            24
    ##  5 R_22Q25krmP2LlT9U            24
    ##  6 R_25cSS3BRq8iLBKN            24
    ##  7 R_26ECudQ82Quje4p            24
    ##  8 R_27G0cnE8h7RcWGJ            24
    ##  9 R_29ORVsytj5uGQHD            24
    ## 10 R_2C8Nvjb39HY9yxP            24
    ## # ℹ 80 more rows
…
#Count for the display
data1_chunk_unique <- data1_chunk %>%
  group_by(ResponseId, Pattern) %>%
  slice(1) %>%
  ungroup()

chunk_pattern_counts <- data1_chunk_unique %>%
  group_by(Pattern, Chunk) %>%
  summarise(n = n(), .groups = 'drop') %>%
  arrange(Pattern, Chunk)

print(chunk_pattern_counts)
```

    ## # A tibble: 26 × 3
    ##    Pattern Chunk             n
    ##    <chr>   <chr>         <int>
    ##  1 Jhaptal 1                48
    ##  2 Jhaptal 2                 4
    ##  3 Jhaptal 3                 2
    ##  4 Jhaptal 4                 7
    ##  5 Jhaptal 5                 1
    ##  6 Jhaptal No idea           6
    ##  7 Jhaptal None of these    22
    ##  8 Keherva 1                11
    ##  9 Keherva 2                18
    ## 10 Keherva 3                 8
    ## # ℹ 16 more rows
…
